<?xml version="1.0" encoding="UTF-8" standalone="no"?>
<svg
   xmlns:dc="http://purl.org/dc/elements/1.1/"
   xmlns:cc="http://creativecommons.org/ns#"
   xmlns:rdf="http://www.w3.org/1999/02/22-rdf-syntax-ns#"
   xmlns:svg="http://www.w3.org/2000/svg"
   xmlns="http://www.w3.org/2000/svg"
   version="1.1"
   id="svg2"
   viewBox="0 0 12.5 12.5"
   height="3.5277777mm"
   width="3.5277777mm">
  <defs
     id="defs4" />
  <metadata
     id="metadata7">
    <rdf:RDF>
      <cc:Work
         rdf:about="">
        <dc:format>image/svg+xml</dc:format>
        <dc:type
           rdf:resource="http://purl.org/dc/dcmitype/StillImage" />
        <dc:title></dc:title>
      </cc:Work>
    </rdf:RDF>
  </metadata>
  <g
     transform="translate(0,-1039.8622)"
     id="layer1">
    <rect
       y="1040.0184"
       x="0.15625"
       height="12.1875"
       width="12.1875"
       id="rect3336"
       style="fill:#ffffff;fill-opacity:1;stroke:#000000;stroke-width:0.3125;stroke-miterlimit:4;stroke-dasharray:none;stroke-opacity:1" />
    <rect
       y="1041.2684"
       x="1.40625"
       height="9.6875"
       width="9.6875"
       id="rect3336-5"
       style="fill:#ffffff;fill-opacity:1;stroke:#000000;stroke-width:0.3125;stroke-miterlimit:4;stroke-dasharray:none;stroke-opacity:1" />
  </g>
</svg>
