<?xml version="1.0" encoding="UTF-8" standalone="no"?>
<!-- Created by MetaPost 1.999 on 2016.08.30:1059 -->

<svg
   xmlns:dc="http://purl.org/dc/elements/1.1/"
   xmlns:cc="http://creativecommons.org/ns#"
   xmlns:rdf="http://www.w3.org/1999/02/22-rdf-syntax-ns#"
   xmlns:svg="http://www.w3.org/2000/svg"
   xmlns="http://www.w3.org/2000/svg"
   xmlns:sodipodi="http://sodipodi.sourceforge.net/DTD/sodipodi-0.dtd"
   xmlns:inkscape="http://www.inkscape.org/namespaces/inkscape"
   version="1.1"
   width="14.6cm"
   height="20cm"
   viewBox="0 0 517.32287 708.66141"
   id="svg2"
   inkscape:version="0.91 r13725"
   sodipodi:docname="O.svg">
  <metadata
     id="metadata12">
    <rdf:RDF>
      <cc:Work
         rdf:about="">
        <dc:format>image/svg+xml</dc:format>
        <dc:type
           rdf:resource="http://purl.org/dc/dcmitype/StillImage" />
        <dc:title />
      </cc:Work>
    </rdf:RDF>
  </metadata>
  <defs
     id="defs10" />
  <sodipodi:namedview
     pagecolor="#ffffff"
     bordercolor="#666666"
     borderopacity="1"
     objecttolerance="10"
     gridtolerance="10"
     guidetolerance="10"
     inkscape:pageopacity="0"
     inkscape:pageshadow="2"
     inkscape:window-width="1280"
     inkscape:window-height="757"
     id="namedview8"
     showgrid="false"
     inkscape:zoom="1.2385404"
     inkscape:cx="176.22021"
     inkscape:cy="214.60933"
     inkscape:window-x="0"
     inkscape:window-y="17"
     inkscape:window-maximized="1"
     inkscape:current-layer="svg2"
     units="cm" />
  <!-- Original BoundingBox: -0.500000 -478.705566 1315.565308 1674.219482 -->
  <path
     sodipodi:nodetypes="sssccssss"
     inkscape:connector-curvature="0"
     id="path4133"
     style="fill:none;stroke:#fa6662;stroke-width:1.75400031;stroke-linecap:round;stroke-linejoin:round;stroke-miterlimit:10;stroke-dasharray:none;stroke-opacity:1"
     d="m 364.00126,38.129608 c -30.1547,-0.499639 -72.81652,54.609074 -108.34966,112.658542 -35.71783,58.35127 -85.68941,103.59469 -85.68941,168.65431 0,65.05965 22.3053,89.73405 54.03505,150.34632 136.12234,6.81665 25.63365,204.87856 125.92853,205.40552 43.21744,-1.32199 64.34358,-83.70302 91.8839,-149.74533 26.33199,-63.14468 84.29404,-197.14683 42.05445,-246.6299 C 426.85341,212.03185 478.90229,193.76481 441.17046,141.6206 410.29756,98.955208 412.73034,38.93701 364.00126,38.129608 Z" />
</svg>
